…
    ## Warning: Dropping 'draws_df' class as required metadata was removed.

``` r
aim3_draws_psych_cov
```

    ## # A tibble: 26 × 4
    ##    name               value   .lower  .upper  
    ##    <chr>              <chr>   <chr>   <chr>   
    ##  1 b01_Intercept      " 2.03" [ 1.70, " 2.35]"
    ##  2 b02_Actor_IS       " 0.29" [ 0.11, " 0.48]"
    ##  3 b03_Partner_IS     " 0.19" [ 0.00, " 0.38]"
    ##  4 b04_ActorNA_life   " 0.41" [ 0.21, " 0.62]"
    ##  5 b05_PartnerNA_life " 0.47" [ 0.27, " 0.68]"
    ##  6 b06_ActorNA_disc   "-0.20" [-0.43, " 0.03]"
    ##  7 b07_PartnerNA_disc "-0.16" [-0.39, " 0.07]"
    ##  8 b08_age            " 0.08" [-0.11, " 0.27]"
    ##  9 b09_length         " 0.30" [ 0.04, " 0.56]"
    ## 10 b10_sxlorx         "-0.08" [-0.32, " 0.17]"
    ## # … with 16 more rows
…
    ## Warning: Dropping 'draws_df' class as required metadata was removed.

``` r
aim3_draws_phys_cov
```

    ## # A tibble: 26 × 4
    ##    name               value   .lower  .upper  
    ##    <chr>              <chr>   <chr>   <chr>   
    ##  1 b01_Intercept      "-2.23" [-3.18, "-1.34]"
    ##  2 b02_Actor_IS       " 0.03" [-0.60, " 0.64]"
    ##  3 b03_Partner_IS     " 0.13" [-0.49, " 0.75]"
    ##  4 b04_ActorNA_life   " 0.37" [-0.38, " 1.15]"
    ##  5 b05_PartnerNA_life " 0.72" [ 0.00, " 1.49]"
    ##  6 b06_ActorNA_disc   " 0.08" [-0.72, " 0.88]"
    ##  7 b07_PartnerNA_disc " 0.39" [-0.39, " 1.20]"
    ##  8 b08_age            "-0.03" [-0.61, " 0.60]"
    ##  9 b09_length         " 0.20" [-0.42, " 0.79]"
    ## 10 b10_sxlorx         "-0.62" [-1.29, " 0.10]"
    ## # … with 16 more rows
…
    ## Warning: Dropping 'draws_df' class as required metadata was removed.

``` r
aim3_draws_sgm_cov
```

    ## # A tibble: 26 × 4
    ##    name               value   .lower  .upper  
    ##    <chr>              <chr>   <chr>   <chr>   
    ##  1 b01_Intercept      "-2.22" [-3.05, "-1.49]"
    ##  2 b02_Actor_IS       " 0.06" [-0.38, " 0.48]"
    ##  3 b03_Partner_IS     " 0.42" [ 0.01, " 0.83]"
    ##  4 b04_ActorNA_life   " 0.34" [-0.18, " 0.93]"
    ##  5 b05_PartnerNA_life " 0.40" [-0.12, " 0.98]"
    ##  6 b06_ActorNA_disc   " 0.45" [-0.11, " 1.05]"
    ##  7 b07_PartnerNA_disc " 0.73" [ 0.16, " 1.38]"
    ##  8 b08_age            " 0.02" [-0.48, " 0.50]"
    ##  9 b09_length         "-0.13" [-0.62, " 0.36]"
    ## 10 b10_sxlorx         "-0.38" [-1.02, " 0.26]"
    ## # … with 16 more rows
…
