…
# save output for table reporting
write_csv(prev, "output/ipv_individ_prev.csv")

# display output 
prev
```

    ## # A tibble: 28 × 2
    ##    ColNames             perc_n   
    ##    <chr>                <chr>    
    ##  1 phys_ipv_prev        15.2 (25)
    ##  2 CTS_phys_threw_perp  5.5 (9)  
    ##  3 CTS_phys_twist_perp  3 (5)    
    ##  4 CTS_phys_push_perp   7.9 (13) 
    ##  5 CTS_phys_grab_perp   8.5 (14) 
    ##  6 CTS_phys_slap_perp   7.3 (12) 
    ##  7 CTS_phys_weapon_perp 1.2 (2)  
    ##  8 CTS_phys_punch_perp  4.3 (7)  
    ##  9 CTS_phys_choke_perp  2.4 (4)  
    ## 10 CTS_phys_slam_perp   3 (5)    
    ## # ℹ 18 more rows
…
  filter(missing_CTSsgm == F) %>% 
  # 2 couples excluded 
  filter(CoupleID != 1054 | CoupleID != 1138) %>% 
  # 1 couple excluded
  filter(missing_PANASlife == F) %>%
  filter(missing_PANASdisc == F) %>% 
  # 5 couples excluded
  filter(missing_GlobalDClife == F) %>% 
  # 1 couple excluded 
  filter(missing_GlobalDCdisc == F) %>% 
  # 1 additional couple excluded b/c one partner did not report on race/ethnicity
  filter(CoupleID != 1083)
```

    ## # A tibble: 144 × 255
    ##    CoupleID ParticipantID   Age race_categ  race_categ_spec race_dich race_match
    ##       <dbl>         <dbl> <dbl> <fct>       <fct>           <fct>     <fct>     
    ##  1     1002           103    30 Hispanic/L… Hispanic/Latinx BIPOC     Both BIPOC
    ##  2     1002           104    29 Asian       Asian           BIPOC     Both BIPOC
    ##  3     1006           111    21 Hispanic/L… Hispanic/Latinx BIPOC     Mixed (on…
    ##  4     1006           112    21 Non-Hispan… Non-Hispanic W… Non-Hisp… Mixed (on…
    ##  5     1007           113    24 Multiracial Non-Hispanic M… BIPOC     Mixed (on…
    ##  6     1007           114    25 Non-Hispan… Non-Hispanic W… Non-Hisp… Mixed (on…
    ##  7     1009           117    20 Non-Hispan… Non-Hispanic W… Non-Hisp… Mixed (on…
    ##  8     1009           118    26 Hispanic/W… Hispanic/White  BIPOC     Mixed (on…
    ##  9     1011           121    21 Non-Hispan… Non-Hispanic W… Non-Hisp… Both non-…
    ## 10     1011           122    20 Non-Hispan… Non-Hispanic W… Non-Hisp… Both non-…
    ## # ℹ 134 more rows
    ## # ℹ 248 more variables: Educ <fct>, Income <fct>, Employment <fct>,
    ## #   SxlOrx <fct>, SxlOrx_Other_Text <chr>, SxlOrx_match <fct>,
    ## #   sxlorx_dich <fct>, GenderIdent <fct>, GenderIdent_Other_Text <chr>,
    ## #   GenderIdent_match <fct>, gender_three <fct>, Cohab <fct>,
    ## #   cohab_length_mths <dbl>, cohab_length_yrs <dbl>, rel_length_mths <dbl>,
    ## #   rel_length_yrs <dbl>, CSI_1 <dbl>, CSI_2 <dbl>, CSI_3 <dbl>, CSI_4 <dbl>, …
…
